ARM GAS  /tmp/ccvBKvBx.s 			page 1


   1              		.cpu cortex-m4
   2              		.eabi_attribute 27, 1
   3              		.eabi_attribute 28, 1
   4              		.eabi_attribute 20, 1
   5              		.eabi_attribute 21, 1
   6              		.eabi_attribute 23, 3
   7              		.eabi_attribute 24, 1
   8              		.eabi_attribute 25, 1
   9              		.eabi_attribute 26, 1
  10              		.eabi_attribute 30, 1
  11              		.eabi_attribute 34, 1
  12              		.eabi_attribute 18, 4
  13              		.file	"stm32f4xx_it.c"
  14              		.text
  15              	.Ltext0:
  16              		.cfi_sections	.debug_frame
  17              		.section	.text.SVC_Handler,"ax",%progbits
  18              		.align	1
  19              		.global	SVC_Handler
  20              		.syntax unified
  21              		.thumb
  22              		.thumb_func
  23              		.fpu fpv4-sp-d16
  25              	SVC_Handler:
  26              	.LFB124:
  27              		.file 1 "Src/stm32f4xx_it.c"
   1:Src/stm32f4xx_it.c **** /**
   2:Src/stm32f4xx_it.c ****   ******************************************************************************
   3:Src/stm32f4xx_it.c ****   * @file    stm32f4xx_it.c
   4:Src/stm32f4xx_it.c ****   * @brief   Interrupt Service Routines.
   5:Src/stm32f4xx_it.c ****   ******************************************************************************
   6:Src/stm32f4xx_it.c ****   *
   7:Src/stm32f4xx_it.c ****   * COPYRIGHT(c) 2019 STMicroelectronics
   8:Src/stm32f4xx_it.c ****   *
   9:Src/stm32f4xx_it.c ****   * Redistribution and use in source and binary forms, with or without modification,
  10:Src/stm32f4xx_it.c ****   * are permitted provided that the following conditions are met:
  11:Src/stm32f4xx_it.c ****   *   1. Redistributions of source code must retain the above copyright notice,
  12:Src/stm32f4xx_it.c ****   *      this list of conditions and the following disclaimer.
  13:Src/stm32f4xx_it.c ****   *   2. Redistributions in binary form must reproduce the above copyright notice,
  14:Src/stm32f4xx_it.c ****   *      this list of conditions and the following disclaimer in the documentation
  15:Src/stm32f4xx_it.c ****   *      and/or other materials provided with the distribution.
  16:Src/stm32f4xx_it.c ****   *   3. Neither the name of STMicroelectronics nor the names of its contributors
  17:Src/stm32f4xx_it.c ****   *      may be used to endorse or promote products derived from this software
  18:Src/stm32f4xx_it.c ****   *      without specific prior written permission.
  19:Src/stm32f4xx_it.c ****   *
  20:Src/stm32f4xx_it.c ****   * THIS SOFTWARE IS PROVIDED BY THE COPYRIGHT HOLDERS AND CONTRIBUTORS "AS IS"
  21:Src/stm32f4xx_it.c ****   * AND ANY EXPRESS OR IMPLIED WARRANTIES, INCLUDING, BUT NOT LIMITED TO, THE
  22:Src/stm32f4xx_it.c ****   * IMPLIED WARRANTIES OF MERCHANTABILITY AND FITNESS FOR A PARTICULAR PURPOSE ARE
  23:Src/stm32f4xx_it.c ****   * DISCLAIMED. IN NO EVENT SHALL THE COPYRIGHT HOLDER OR CONTRIBUTORS BE LIABLE
  24:Src/stm32f4xx_it.c ****   * FOR ANY DIRECT, INDIRECT, INCIDENTAL, SPECIAL, EXEMPLARY, OR CONSEQUENTIAL
  25:Src/stm32f4xx_it.c ****   * DAMAGES (INCLUDING, BUT NOT LIMITED TO, PROCUREMENT OF SUBSTITUTE GOODS OR
  26:Src/stm32f4xx_it.c ****   * SERVICES; LOSS OF USE, DATA, OR PROFITS; OR BUSINESS INTERRUPTION) HOWEVER
  27:Src/stm32f4xx_it.c ****   * CAUSED AND ON ANY THEORY OF LIABILITY, WHETHER IN CONTRACT, STRICT LIABILITY,
  28:Src/stm32f4xx_it.c ****   * OR TORT (INCLUDING NEGLIGENCE OR OTHERWISE) ARISING IN ANY WAY OUT OF THE USE
  29:Src/stm32f4xx_it.c ****   * OF THIS SOFTWARE, EVEN IF ADVISED OF THE POSSIBILITY OF SUCH DAMAGE.
  30:Src/stm32f4xx_it.c ****   *
  31:Src/stm32f4xx_it.c ****   ******************************************************************************
ARM GAS  /tmp/ccvBKvBx.s 			page 2


  32:Src/stm32f4xx_it.c ****   */
  33:Src/stm32f4xx_it.c **** /* Includes ------------------------------------------------------------------*/
  34:Src/stm32f4xx_it.c **** #include "stm32f4xx_hal.h"
  35:Src/stm32f4xx_it.c **** #include "stm32f4xx.h"
  36:Src/stm32f4xx_it.c **** #include "stm32f4xx_it.h"
  37:Src/stm32f4xx_it.c **** 
  38:Src/stm32f4xx_it.c **** /* USER CODE BEGIN 0 */
  39:Src/stm32f4xx_it.c **** 
  40:Src/stm32f4xx_it.c **** /* USER CODE END 0 */
  41:Src/stm32f4xx_it.c **** 
  42:Src/stm32f4xx_it.c **** /* External variables --------------------------------------------------------*/
  43:Src/stm32f4xx_it.c **** 
  44:Src/stm32f4xx_it.c **** /******************************************************************************/
  45:Src/stm32f4xx_it.c **** /*            Cortex-M4 Processor Interruption and Exception Handlers         */ 
  46:Src/stm32f4xx_it.c **** /******************************************************************************/
  47:Src/stm32f4xx_it.c **** 
  48:Src/stm32f4xx_it.c **** /**
  49:Src/stm32f4xx_it.c **** * @brief This function handles System service call via SWI instruction.
  50:Src/stm32f4xx_it.c **** */
  51:Src/stm32f4xx_it.c **** void SVC_Handler(void)
  52:Src/stm32f4xx_it.c **** {
  28              		.loc 1 52 0
  29              		.cfi_startproc
  30              		@ args = 0, pretend = 0, frame = 0
  31              		@ frame_needed = 0, uses_anonymous_args = 0
  32              		@ link register save eliminated.
  33 0000 7047     		bx	lr
  34              		.cfi_endproc
  35              	.LFE124:
  37              		.section	.text.PendSV_Handler,"ax",%progbits
  38              		.align	1
  39              		.global	PendSV_Handler
  40              		.syntax unified
  41              		.thumb
  42              		.thumb_func
  43              		.fpu fpv4-sp-d16
  45              	PendSV_Handler:
  46              	.LFB125:
  53:Src/stm32f4xx_it.c ****   /* USER CODE BEGIN SVCall_IRQn 0 */
  54:Src/stm32f4xx_it.c **** 
  55:Src/stm32f4xx_it.c ****   /* USER CODE END SVCall_IRQn 0 */
  56:Src/stm32f4xx_it.c ****   /* USER CODE BEGIN SVCall_IRQn 1 */
  57:Src/stm32f4xx_it.c **** 
  58:Src/stm32f4xx_it.c ****   /* USER CODE END SVCall_IRQn 1 */
  59:Src/stm32f4xx_it.c **** }
  60:Src/stm32f4xx_it.c **** 
  61:Src/stm32f4xx_it.c **** /**
  62:Src/stm32f4xx_it.c **** * @brief This function handles Pendable request for system service.
  63:Src/stm32f4xx_it.c **** */
  64:Src/stm32f4xx_it.c **** void PendSV_Handler(void)
  65:Src/stm32f4xx_it.c **** {
  47              		.loc 1 65 0
  48              		.cfi_startproc
  49              		@ args = 0, pretend = 0, frame = 0
  50              		@ frame_needed = 0, uses_anonymous_args = 0
  51              		@ link register save eliminated.
  52 0000 7047     		bx	lr
ARM GAS  /tmp/ccvBKvBx.s 			page 3


  53              		.cfi_endproc
  54              	.LFE125:
  56              		.section	.text.SysTick_Handler,"ax",%progbits
  57              		.align	1
  58              		.global	SysTick_Handler
  59              		.syntax unified
  60              		.thumb
  61              		.thumb_func
  62              		.fpu fpv4-sp-d16
  64              	SysTick_Handler:
  65              	.LFB126:
  66:Src/stm32f4xx_it.c ****   /* USER CODE BEGIN PendSV_IRQn 0 */
  67:Src/stm32f4xx_it.c **** 
  68:Src/stm32f4xx_it.c ****   /* USER CODE END PendSV_IRQn 0 */
  69:Src/stm32f4xx_it.c ****   /* USER CODE BEGIN PendSV_IRQn 1 */
  70:Src/stm32f4xx_it.c **** 
  71:Src/stm32f4xx_it.c ****   /* USER CODE END PendSV_IRQn 1 */
  72:Src/stm32f4xx_it.c **** }
  73:Src/stm32f4xx_it.c **** 
  74:Src/stm32f4xx_it.c **** /**
  75:Src/stm32f4xx_it.c **** * @brief This function handles System tick timer.
  76:Src/stm32f4xx_it.c **** */
  77:Src/stm32f4xx_it.c **** void SysTick_Handler(void)
  78:Src/stm32f4xx_it.c **** {
  66              		.loc 1 78 0
  67              		.cfi_startproc
  68              		@ args = 0, pretend = 0, frame = 0
  69              		@ frame_needed = 0, uses_anonymous_args = 0
  70              		.loc 1 78 0
  71 0000 08B5     		push	{r3, lr}
  72              	.LCFI0:
  73              		.cfi_def_cfa_offset 8
  74              		.cfi_offset 3, -8
  75              		.cfi_offset 14, -4
  79:Src/stm32f4xx_it.c ****   /* USER CODE BEGIN SysTick_IRQn 0 */
  80:Src/stm32f4xx_it.c **** 
  81:Src/stm32f4xx_it.c ****   /* USER CODE END SysTick_IRQn 0 */
  82:Src/stm32f4xx_it.c ****   HAL_IncTick();
  76              		.loc 1 82 0
  77 0002 FFF7FEFF 		bl	HAL_IncTick
  78              	.LVL0:
  83:Src/stm32f4xx_it.c ****   HAL_SYSTICK_IRQHandler();
  79              		.loc 1 83 0
  80 0006 FFF7FEFF 		bl	HAL_SYSTICK_IRQHandler
  81              	.LVL1:
  82 000a 08BD     		pop	{r3, pc}
  83              		.cfi_endproc
  84              	.LFE126:
  86              		.text
  87              	.Letext0:
  88              		.file 2 "/home/nishant/stm/arm-gcc/gcc-arm-none-eabi-6-2017-q2-update/arm-none-eabi/include/machin
  89              		.file 3 "/home/nishant/stm/arm-gcc/gcc-arm-none-eabi-6-2017-q2-update/arm-none-eabi/include/sys/_s
  90              		.file 4 "Drivers/CMSIS/Include/core_cm4.h"
  91              		.file 5 "Drivers/CMSIS/Device/ST/STM32F4xx/Include/system_stm32f4xx.h"
  92              		.file 6 "/home/nishant/stm/arm-gcc/gcc-arm-none-eabi-6-2017-q2-update/arm-none-eabi/include/sys/lo
  93              		.file 7 "/home/nishant/stm/arm-gcc/gcc-arm-none-eabi-6-2017-q2-update/arm-none-eabi/include/sys/_t
  94              		.file 8 "/home/nishant/stm/arm-gcc/gcc-arm-none-eabi-6-2017-q2-update/lib/gcc/arm-none-eabi/6.3.1/
ARM GAS  /tmp/ccvBKvBx.s 			page 4


  95              		.file 9 "/home/nishant/stm/arm-gcc/gcc-arm-none-eabi-6-2017-q2-update/arm-none-eabi/include/sys/re
  96              		.file 10 "Drivers/STM32F4xx_HAL_Driver/Inc/stm32f4xx_hal.h"
  97              		.file 11 "Drivers/STM32F4xx_HAL_Driver/Inc/stm32f4xx_hal_cortex.h"
ARM GAS  /tmp/ccvBKvBx.s 			page 5


DEFINED SYMBOLS
                            *ABS*:0000000000000000 stm32f4xx_it.c
     /tmp/ccvBKvBx.s:18     .text.SVC_Handler:0000000000000000 $t
     /tmp/ccvBKvBx.s:25     .text.SVC_Handler:0000000000000000 SVC_Handler
     /tmp/ccvBKvBx.s:38     .text.PendSV_Handler:0000000000000000 $t
     /tmp/ccvBKvBx.s:45     .text.PendSV_Handler:0000000000000000 PendSV_Handler
     /tmp/ccvBKvBx.s:57     .text.SysTick_Handler:0000000000000000 $t
     /tmp/ccvBKvBx.s:64     .text.SysTick_Handler:0000000000000000 SysTick_Handler
                     .debug_frame:0000000000000010 $d

UNDEFINED SYMBOLS
HAL_IncTick
HAL_SYSTICK_IRQHandler
